{
  "project_info": {
    "project_number": "604624819132",
    "firebase_url": "https://interio-ef3f6.firebaseio.com",
    "project_id": "interio-ef3f6",
    "storage_bucket": "interio-ef3f6.appspot.com"
  },
  "client": [
    {
      "client_info": {
        "mobilesdk_app_id": "1:604624819132:android:7890c23ebf977e1da891b9",
        "android_client_info": {
          "package_name": "com.example.client_mobile"
        }
      },
      "oauth_client": [
        {
          "client_id": "604624819132-jt94kratrv25em61ulks55ih2u0e1ant.apps.googleusercontent.com",
          "client_type": 1,
          "android_info": {
            "package_name": "com.example.client_mobile",
            "certificate_hash": "ffe690ffeebb739bb1613b0c9712125e7ee9b749"
          }
        },
        {
          "client_id": "604624819132-b23i2c4u0gr03e4j39gu9v3f7d57q3cs.apps.googleusercontent.com",
          "client_type": 3
        }
      ],
      "api_key": [
        {
          "current_key": "AIzaSyDr5dY178UwDdAVbwzh3EVtpXhyiZi-ZF0"
        }
      ],
      "services": {
        "appinvite_service": {
          "other_platform_oauth_client": [
            {
              "client_id": "604624819132-b23i2c4u0gr03e4j39gu9v3f7d57q3cs.apps.googleusercontent.com",
              "client_type": 3
            }
          ]
        }
      }
    },
    {
      "client_info": {
        "mobilesdk_app_id": "1:604624819132:android:4680900a9b8805eba891b9",
        "android_client_info": {
          "package_name": "com.example.designer_mobile"
        }
      },
      "oauth_client": [
        {
          "client_id": "604624819132-6po1q9cg42e2g3opo5060d3ho34mimv3.apps.googleusercontent.com",
          "client_type": 1,
          "android_info": {
            "package_name": "com.example.designer_mobile",
            "certificate_hash": "ffe690ffeebb739bb1613b0c9712125e7ee9b749"
          }
        },
        {
          "client_id": "604624819132-b23i2c4u0gr03e4j39gu9v3f7d57q3cs.apps.googleusercontent.com",
          "client_type": 3
        }
      ],
      "api_key": [
        {
          "current_key": "AIzaSyDr5dY178UwDdAVbwzh3EVtpXhyiZi-ZF0"
        }
      ],
      "services": {
        "appinvite_service": {
          "other_platform_oauth_client": [
            {
              "client_id": "604624819132-b23i2c4u0gr03e4j39gu9v3f7d57q3cs.apps.googleusercontent.com",
              "client_type": 3
            }
          ]
        }
      }
    }
  ],
  "configuration_version": "1"
}